Florida Atlantic University,Florida,https://bids.sciquest.com/apps/Router/PublicEvent?CustomerOrg=FAU
Florida International University,Florida,https://bids.sciquest.com/apps/Router/PublicEvent?CustomerOrg=FIU
Florida State University,Florida,https://bids.sciquest.com/apps/Router/PublicEvent?CustomerOrg=FSU
University of South Florida,Florida,https://bids.sciquest.com/apps/Router/PublicEvent?tab=PHX_NAV_SourcingOpenForBid&CustomerOrg=USFlorida&tmstmp=1595984336158
Atlanta Housing Authority,Georgia,https://bids.sciquest.com/apps/Router/PublicEvent?CustomerOrg=AHA
Georgia Institute of Technology,Georgia,https://bids.sciquest.com/apps/Router/PublicEvent?CustomerOrg=GIT
University of Georgia,Georgia,https://bids.sciquest.com/apps/Router/PublicEvent?CustomerOrg=UGA
Auburn University,Alabama,https://bids.sciquest.com/apps/Router/PublicEvent?CustomerOrg=Auburn
State of Idaho,Idaho,https://bids.sciquest.com/apps/Router/PublicEvent?CustomerOrg=StateofIdaho
