City of Peoria,Arizona,https://peoriaaz.bonfirehub.com/portal/?tab=openOpportunities
Pinal County,Arizona,https://pinalcountyaz.bonfirehub.com/portal/?tab=openOpportunities
Cochise County,Arizona,https://cochise.bonfirehub.com/portal/?tab=openOpportunities
Tempe Union High School District,Arizona,https://tuhsd.bonfirehub.com/portal/?tab=openOpportunities
"Golden Gate Bridge, Highway and Transportation District",California,https://ggbhtd.bonfirehub.com/portal/?tab=openOpportunities
Marin Transit,California,https://marintransit.bonfirehub.com/portal/?tab=openOpportunities
Metropolitan Transportation Commission,California,https://mtc.bonfirehub.com/portal/?tab=openOpportunities
San Mateo County Transit District,California,https://smctd.bonfirehub.com/portal/?tab=openOpportunities
Solano County,California,https://solanocounty.bonfirehub.com/portal/?tab=openOpportunities
Stockton Unified School District,California,https://stocktonusd.bonfirehub.com/portal/?tab=openOpportunities
County of Ventura,California,https://ventura.bonfirehub.com/portal/?tab=openOpportunities
Water Replenishment District Of Southern California,California,https://wrd.bonfirehub.com/portal/?tab=openOpportunities
Nipissing University,Canada,https://nipissingu.bonfirehub.ca/portal/?tab=openOpportunities
Shared Services West,Canada,https://ssw.bonfirehub.ca/portal/?tab=openOpportunities
Town of Mansfield,Connecticut,https://mansfieldct.bonfirehub.com/portal/?tab=openOpportunities
New Haven,Connecticut,https://newhavenct.bonfirehub.com/portal/?tab=openOpportunities
City of Norwich,Connecticut,https://norwichct.bonfirehub.com/portal/?tab=openOpportunities
Beacon Falls,Connecticut,https://tobfct.bonfirehub.com/portal/?tab=openOpportunities
FAMU,Florida,https://famu.bonfirehub.com/portal/?tab=openOpportunities
FGCU,Florida,https://fgcu.bonfirehub.com/portal/?tab=openOpportunities
Jacksonville Transportation Authority,Florida,https://jtafla.bonfirehub.com/portal/?tab=openOpportunities
Palm Coast,Florida,https://palmcoastgov.bonfirehub.com/portal/?tab=openOpportunities
St. Lucie School District,Florida,https://stlucieschools.bonfirehub.com/portal/?tab=openOpportunities
Atlanta Public Schools,Georgia,https://aps.bonfirehub.com/portal/?tab=openOpportunities
Clayton County Public Schools,Georgia,https://claytonk12ga.bonfirehub.com/portal/?tab=openOpportunities
Hall County Schools,Georgia,https://hallco.bonfirehub.com/portal/?tab=openOpportunities
Sandy Springs,Georgia,https://sandysprings.bonfirehub.com/portal/?tab=openOpportunities
Chicago Transit Authority,Illinois,https://transitchicago.bonfirehub.com/portal/?tab=openOpportunities
School District U-46,Illinois,https://u-46.bonfirehub.com/portal/?tab=openOpportunities
Louisville,Kentucky,https://louisvilleky.bonfirehub.com/portal/?tab=openOpportunities
Transit Authority of River City,Kentucky,https://tarc.bonfirehub.com/portal/?tab=openOpportunities
University of Massachusetts,Massachusetts,https://umass.bonfirehub.com/portal/?tab=openOpportunities
Great Lakes Water Authority,Michigan,https://glwater.bonfirehub.com/portal/?tab=openOpportunities
Utica Communicaty Schools,Michigan,https://uticak12.bonfirehub.com/portal/?tab=openOpportunities
Clark County,Nevada,https://clarkcountynv.bonfirehub.com/portal/?tab=openOpportunities
New Jersey Casino Reinvestment Development Authority,New Jersey,https://njcrda.bonfirehub.com/portal/?tab=openOpportunities
Bernalillo County,New Mexico,https://bernco.bonfirehub.com/portal/?tab=openOpportunities
City of Albuquerque,New Mexico,https://cabq.bonfirehub.com/portal/?tab=openOpportunities
Eddy County,New Mexico,https://coeddynm.bonfirehub.com/portal/?tab=openOpportunities
Gallup-McKinley County Schools,New Mexico,https://gmcs.bonfirehub.com/portal/?tab=openOpportunities
Buffalo Public Schools,New York,https://buffaloschools.bonfirehub.com/portal/?tab=openOpportunities
Erie County Medical Corporation,New York,https://ecmc.bonfirehub.com/portal/?tab=openOpportunities
Putnam County,New York,https://putnamcountyny.bonfirehub.com/portal/?tab=openOpportunities
Port Authority of New York and New Jersey,New York,https://panynj.bonfirehub.com/portal/?tab=openOpportunities
North Carolina Agricultural and Technical State University,North Carolina,https://ncat.bonfirehub.com/portal/?tab=openOpportunities
Town of Apex,North Carolina,https://apexnc.bonfirehub.com/portal/?tab=openOpportunities
City of Columbus,Ohio,https://columbus.bonfirehub.com/portal/?tab=openOpportunities
City of Westerville,Ohio,https://westerville.bonfirehub.com/portal/?tab=openOpportunities
Westerville,Ohio,https://westerville.bonfirehub.com/portal/?tab=openOpportunities
Southern Oregon University,Oregon,https://sou.bonfirehub.com/portal/?tab=openOpportunities
Allegheny County,Pennsylvania,https://alleghenycounty.bonfirehub.com/portal/?tab=openOpportunities
Beaufort - Jasper Water & Sewer Authority,South Carolina,https://bjwsa.bonfirehub.com/portal/?tab=openOpportunities
Oconee County,South Carolina,https://oconeesc.bonfirehub.com/portal/?tab=openOpportunities
Brazoria County,Texas,https://brazoriacounty.bonfirehub.com/portal/?tab=openOpportunities
City of Burleson,Texas,https://burlesontx.bonfirehub.com/portal/?tab=openOpportunities
Potter County,Texas,https://co-potter-tx.bonfirehub.com/portal/?tab=openOpportunities
City of Dallas,Texas,https://dallascityhall.bonfirehub.com/portal/?tab=openOpportunities
Region 3 Education Service Center,Texas,https://esc3.bonfirehub.com/portal/?tab=openOpportunities
Hutto Independent School District,Texas,https://huttoisd.bonfirehub.com/portal/?tab=openOpportunities
Katy ISD,Texas,https://katyisd.bonfirehub.com/portal/?tab=openOpportunities
Kellogg & Sovereign Consulting LLC,Texas,https://kelloggllc.bonfirehub.com/portal/?tab=openOpportunities
Trinity Metro,Texas,https://ridetm.bonfirehub.com/portal/?tab=openOpportunities
Richardson Independent School District,Texas,https://risd.bonfirehub.com/portal/?tab=openOpportunities
San Antonio Independent School District,Texas,https://saisd.bonfirehub.com/portal/?tab=openOpportunities
Texans Can Academies,Texas,https://texanscan.bonfirehub.com/portal/?tab=openOpportunities
University of Texas Rio Grande Valley,Texas,https://utrgv.bonfirehub.com/portal/?tab=openOpportunities
Fort Bend Independent School District,Texas,https://fortbendisd.bonfirehub.com/portal/?tab=openOpportunities
Fairfax County Public Schools,Virginia,https://fcps.bonfirehub.com/portal/?tab=openOpportunities
Tacoma Public Schools,Washington,https://tacoma.bonfirehub.com/portal/?tab=openOpportunities
TerraPower LLC,Washington,https://terrapower.bonfirehub.com/portal/?tab=openOpportunities
Kanawha County Schools,West Virginia,https://kanawhacs.bonfirehub.com/portal/?tab=openOpportunities
Milwaukee County,Wisconsin,https://countymilwaukee.bonfirehub.com/portal/?tab=openOpportunities
Milwaukee Metropolitan Sewerage District,Wisconsin,https://mmsd.bonfirehub.com/portal/?tab=openOpportunities
Milwaukee Public Library,Wisconsin,https://mpl.bonfirehub.com/portal/?tab=openOpportunities
